…
#Second, we calculate the monthly average for each year since 2015
monthly_bike <- bike %>%
  filter(year %in% c(2015,2016,2017,2018,2019,2020))%>%
  group_by(year,month)%>%
  summarise(monthly_average = mean(bikes_hired, na.rm=TRUE))

monthly_bike

## # A tibble: 68 x 3
## # Groups:   year [6]
##     year month monthly_average
##    <dbl> <ord>           <dbl>
##  1  2015 Jan            18828.
##  2  2015 Feb            19617.
##  3  2015 Mar            22625.
##  4  2015 Apr            27951.
##  5  2015 May            29031.
##  6  2015 Jun            34659.
##  7  2015 Jul            36607.
##  8  2015 Aug            33643.
##  9  2015 Sep            30114.
## 10  2015 Oct            28560.
## # ... with 58 more rows
…
library(grid)

#We first start by calculating the historic weekly average between 2015 and 2019
historic_weeklyaverage <- bike %>%
  filter(year %in% c(2015,2016,2017,2018,2019))%>%
  group_by(week)%>%
  dplyr::summarise(weekly_historic_average=mean(bikes_hired, na.rm = TRUE))
historic_weeklyaverage

## # A tibble: 53 x 2
##     week weekly_historic_average
##    <dbl>                   <dbl>
##  1     1                  16360.
##  2     2                  21402.
##  3     3                  21540.
##  4     4                  21407.
##  5     5                  20795.
##  6     6                  20058.
##  7     7                  22761.
##  8     8                  22602.
##  9     9                  20176.
## 10    10                  23561.
## # ... with 43 more rows

#Second, we calculate the weekly average for each year since 2015
weekly_bike <- bike %>%
  filter(year %in% c(2015,2016,2017,2018,2019,2020))%>%
  group_by(year,week)%>%
  dplyr::summarise(weekly_average = mean(bikes_hired, na.rm=TRUE))
weekly_bike

## # A tibble: 298 x 3
## # Groups:   year [6]
##     year  week weekly_average
##    <dbl> <dbl>          <dbl>
##  1  2015     1         10038.
##  2  2015     2         18786.
##  3  2015     3         20131.
##  4  2015     4         21158.
##  5  2015     5         19201.
##  6  2015     6         19386.
##  7  2015     7         20787 
##  8  2015     8         18711.
##  9  2015     9         20213.
## 10  2015    10         24196.
## # ... with 288 more rows

#Here we merge the historic average and the weekly average for each year to directly compare both in a data set
weekly_average_bike <- merge(weekly_bike,historic_weeklyaverage, na.rm=TRUE)

#We then proceed by creating one variable called "weekly_diff_percent" which gives the percentage difference between the historic average and the respective weekly average
weekly_difference <- weekly_average_bike %>%
  group_by(year,week)%>%
  dplyr::summarise(weekly_diff_percent = ((weekly_average-weekly_historic_average)/weekly_historic_average))

#We then have a data set with the year, week, and weekly percentage difference from the 2015-2019 weekly average
weekly_difference

## # A tibble: 298 x 3
## # Groups:   year [6]
##     year  week weekly_diff_percent
##    <dbl> <dbl>               <dbl>
##  1  2015     1            -0.386  
##  2  2015     2            -0.122  
##  3  2015     3            -0.0654 
##  4  2015     4            -0.0117 
##  5  2015     5            -0.0767 
##  6  2015     6            -0.0335 
##  7  2015     7            -0.0867 
##  8  2015     8            -0.172  
##  9  2015     9             0.00181
## 10  2015    10             0.0269 
## # ... with 288 more rows
…
